https://eoimages.gsfc.nasa.gov/images/imagerecords/73000/73826/world.topo.bathy.200410.3x21600x21600.A1.png
https://eoimages.gsfc.nasa.gov/images/imagerecords/73000/73826/world.topo.bathy.200410.3x21600x21600.A2.png
https://eoimages.gsfc.nasa.gov/images/imagerecords/73000/73826/world.topo.bathy.200410.3x21600x21600.B1.png
https://eoimages.gsfc.nasa.gov/images/imagerecords/73000/73826/world.topo.bathy.200410.3x21600x21600.B2.png
https://eoimages.gsfc.nasa.gov/images/imagerecords/73000/73826/world.topo.bathy.200410.3x21600x21600.C1.png
https://eoimages.gsfc.nasa.gov/images/imagerecords/73000/73826/world.topo.bathy.200410.3x21600x21600.C2.png
https://eoimages.gsfc.nasa.gov/images/imagerecords/73000/73826/world.topo.bathy.200410.3x21600x21600.D1.png
https://eoimages.gsfc.nasa.gov/images/imagerecords/73000/73826/world.topo.bathy.200410.3x21600x21600.D2.png
